B-Spline Basis Functions — step_bs • recipes
…
data(biomass)

biomass_tr <- biomass[biomass$dataset == "Training",]
biomass_te <- biomass[biomass$dataset == "Testing",]

rec <- recipe(HHV ~ carbon + hydrogen + oxygen + nitrogen + sulfur,
              data = biomass_tr)

with_splines <- rec %>%
  step_bs(carbon, hydrogen)
with_splines <- prep(with_splines, training = biomass_tr)

expanded <- bake(with_splines, biomass_te)
expanded
#> # A tibble: 80 x 10
#>    oxygen nitrogen sulfur    HHV carbon_bs_1 carbon_bs_2 carbon_bs_3
#>     <dbl>    <dbl>  <dbl>  <dbl>       <dbl>       <dbl>       <dbl>
#>  1  47.20     0.30   0.22 18.275   0.4370202  0.27289046 0.056800730
#>  2  48.06     2.85   0.34 17.560   0.4439032  0.23573868 0.041730365
#>  3  49.10     2.40   0.30 17.173   0.4443041  0.22908412 0.039372080
#>  4  37.30     1.80   0.50 18.851   0.4368480  0.27348163 0.057069587
#>  5  42.77     0.20   0.00 20.547   0.4266725  0.30092662 0.070746551
#>  6  41.70     0.70   0.20 18.467   0.4424330  0.24840838 0.046490449
#>  7  54.13     1.19   0.51 15.095   0.4397838  0.18372150 0.025583471
#>  8  33.80     0.95   0.20 16.240   0.4444440  0.22181852 0.036902634
#>  9  31.10     0.14   4.90 11.147   0.3593122  0.07711629 0.005516950
#> 10  23.69     4.63   1.05 10.750   0.3383513  0.06432478 0.004076313
#> # ... with 70 more rows, and 3 more variables: hydrogen_bs_1 <dbl>,
#> #   hydrogen_bs_2 <dbl>, hydrogen_bs_3 <dbl>
…
