Creating Custom Step Functions • recipes
…
#> Warning in regularize.values(x, y, ties, missing(ties)): collapsing to unique
#> 'x' values

percentiles <- bake(rec_obj, biomass_te)
#> Warning in regularize.values(x, y, ties, missing(ties)): collapsing to unique
#> 'x' values

#> Warning in regularize.values(x, y, ties, missing(ties)): collapsing to unique
#> 'x' values

#> Warning in regularize.values(x, y, ties, missing(ties)): collapsing to unique
#> 'x' values
percentiles
#> # A tibble: 80 x 6
#>    carbon hydrogen oxygen nitrogen sulfur   HHV
#>     <dbl>    <dbl>  <dbl>    <dbl>  <dbl> <dbl>
#>  1 0.421    0.45   0.903     0.215  0.735  18.3
#>  2 0.18     0.385  0.922     0.928  0.839  17.6
#>  3 0.156    0.385  0.945     0.9    0.805  17.2
#>  4 0.423    0.775  0.28      0.845  0.902  18.9
#>  5 0.666    0.867  0.631     0.155  0.09   20.5
#>  6 0.218    0.385  0.536     0.495  0.7    18.5
#>  7 0.0803   0.271  0.986     0.695  0.903  15.1
#>  8 0.139    0.126  0.160     0.606  0.7    16.2
#>  9 0.0226   0.103  0.131     0.126  0.996  11.1
#> 10 0.0178   0.0821 0.0987    0.972  0.974  10.8
#> # … with 70 more rows
…
