…
Now that the statistics have been estimated, the preprocessing can be
*applied* to the training and test set:

``` r
train_data <- bake(trained_rec, new_data = credit_train)
test_data  <- bake(trained_rec, new_data = credit_test)
```

`bake` returns a tibble that, by default, includes all of the variables:

``` r
class(test_data)
#> [1] "tbl_df"     "tbl"        "data.frame"
test_data
#> # A tibble: 1,114 × 23
#>    Seniority   Time    Age Expenses  Income Assets   Debt  Amount
#>        <dbl>  <dbl>  <dbl>    <dbl>   <dbl>  <dbl>  <dbl>   <dbl>
#>  1     1.09   0.924  1.88    -0.385 -0.131  -0.488 -0.295 -0.0817
#>  2    -0.977  0.924 -0.459    1.77  -0.437   0.845 -0.295  0.333 
#>  3    -0.977  0.103  0.349    1.77  -0.783  -0.488 -0.295  0.333 
#>  4    -0.247  0.103 -0.280    0.231 -0.207  -0.133 -0.295  0.229 
#>  5    -0.125 -0.718 -0.729    0.231 -0.258  -0.222 -0.295 -0.807 
#>  6    -0.855  0.924 -0.549   -1.05  -0.0539 -0.488 -0.295  0.436 
#>  7     2.31   0.924  0.349    0.949 -0.0155 -0.488 -0.295 -0.185 
#>  8     0.848 -0.718  0.529    1.00   1.40   -0.133 -0.295  1.58  
#>  9    -0.977 -0.718 -1.27    -0.538 -0.246  -0.266 -0.295 -1.32  
#> 10    -0.855  0.514 -0.100    0.744 -0.540  -0.488 -0.295 -0.185 
#> # ℹ 1,104 more rows
#> # ℹ 15 more variables: Price <dbl>, Status <fct>, Home_other <dbl>,
#> #   Home_owner <dbl>, Home_parents <dbl>, Home_priv <dbl>,
#> #   Home_rent <dbl>, Marital_married <dbl>, Marital_separated <dbl>,
#> #   Marital_single <dbl>, Marital_widow <dbl>, Records_yes <dbl>,
#> #   Job_freelance <dbl>, Job_others <dbl>, Job_partime <dbl>
…
