Basic Recipes • recipes
…
Note that the real variables are listed (e.g. Home etc.) instead of the selectors (all_predictors()).

Now that the statistics have been estimated, the preprocessing can be applied to the training and test set:

train_data <- bake(trained_rec, new_data = credit_train)
test_data  <- bake(trained_rec, new_data = credit_test)

bake returns a tibble that, by default, includes all of the variables:

class(test_data)
#> [1] "tbl_df"     "tbl"        "data.frame"
test_data
#> # A tibble: 1,113 x 23
#>    Status Seniority   Time      Age Expenses   Income  Assets   Debt Amount
#>    <fct>      <dbl>  <dbl>    <dbl>    <dbl>    <dbl>   <dbl>  <dbl>  <dbl>
#>  1 bad      0.257   -0.706  0.826      1.75   0.718   -0.199  -0.273  2.05 
#>  2 good     2.61     0.921  0.643      0.987 -0.221    0.386  -0.273  1.21 
#>  3 good     0.133   -2.33  -0.909     -1.05  -0.784   -0.449  -0.273 -1.76 
#>  4 good     0.00966  0.921 -0.635      0.987  0.705   -0.0316  1.86   0.995
#>  5 good     0.875   -1.52   1.37      -1.05   2.34     0.929  -0.273  0.995
#>  6 good     3.10    -1.52   2.84       0.479  0.718   -0.0316  1.43  -0.912
#>  7 good     2.24     0.921  1.28      -0.539  0.00436 -0.157  -0.273  0.677
#>  8 bad     -0.979    0.108  0.00402   -1.05  -0.371   -0.265  -0.273  0.995
#>  9 good     1.99     0.921  0.461      0.987 -0.0707  -0.115  -0.273 -0.276
#> 10 bad     -0.979    0.921 -0.453     -0.539 -0.00815  0.136   2.28   0.465
#> # … with 1,103 more rows, and 14 more variables: Price <dbl>, Home_other <dbl>,
#> #   Home_owner <dbl>, Home_parents <dbl>, Home_priv <dbl>, Home_rent <dbl>,
#> #   Marital_married <dbl>, Marital_separated <dbl>, Marital_single <dbl>,
#> #   Marital_widow <dbl>, Records_yes <dbl>, Job_freelance <dbl>,
#> #   Job_others <dbl>, Job_partime <dbl>
…
