Add intercept (or constant) column — step_intercept • recipes
…
biomass_tr <- biomass[biomass$dataset == "Training",]
biomass_te <- biomass[biomass$dataset == "Testing",]

rec <- recipe(HHV ~ carbon + hydrogen + oxygen + nitrogen + sulfur,
              data = biomass_tr)
rec_trans <- recipe(HHV ~ ., data = biomass_tr[, -(1:2)]) %>%
  step_intercept(value = 2) %>%
  step_scale(carbon)

rec_obj <- prep(rec_trans, training = biomass_tr)

with_intercept <- bake(rec_obj, biomass_te)
with_intercept
#> # A tibble: 80 x 7
#>    intercept carbon hydrogen oxygen nitrogen sulfur   HHV
#>        <dbl>  <dbl>    <dbl>  <dbl>    <dbl>  <dbl> <dbl>
#>  1         2   4.45     5.67   47.2     0.3    0.22  18.3
#>  2         2   4.16     5.5    48.1     2.85   0.34  17.6
#>  3         2   4.10     5.5    49.1     2.4    0.3   17.2
#>  4         2   4.46     6.1    37.3     1.8    0.5   18.9
#>  5         2   4.68     6.32   42.8     0.2    0     20.5
#>  6         2   4.26     5.5    41.7     0.7    0.2   18.5
#>  7         2   3.74     5.23   54.1     1.19   0.51  15.1
#>  8         2   4.04     4.66   33.8     0.95   0.2   16.2
#>  9         2   2.81     4.4    31.1     0.14   4.9   11.1
#> 10         2   2.67     3.77   23.7     4.63   1.05  10.8
#> # … with 70 more rows
…
