Subsampling for Class Imbalances • recipes
…
The J index (a.k.a. Youden’s J statistic) is sensitivity + specificity - 1. Values near one are once again best.

If a model is poorly calibrated, the ROC curve value might not show diminished performance. However, the J index would be lower for models with pathological distributions for the class probabilities. The yardstick package will be used to compute these metrics.

Now, we train the models and generate the predictions. These are stored in list columns where each list element is a data frame of the predictions on the assessment data:

cv_folds <- cv_folds %>%
  mutate(
    sampled_pred = map2(cv_folds$splits, cv_folds$recipes, assess_res),
    normal_pred = map(cv_folds$splits, assess_res)
  )
cv_folds
#> #  10-fold cross-validation repeated 5 times using stratification 
#> # A tibble: 50 x 6
#>    splits       id      id2    recipes      sampled_pred       normal_pred
#>  * <list>       <chr>   <chr>  <list>       <list>             <list>     
#>  1 <S3: rsplit> Repeat1 Fold01 <S3: recipe> <tibble [100 × 3]> <data.fram…
#>  2 <S3: rsplit> Repeat1 Fold02 <S3: recipe> <tibble [100 × 3]> <data.fram…
#>  3 <S3: rsplit> Repeat1 Fold03 <S3: recipe> <tibble [100 × 3]> <data.fram…
#>  4 <S3: rsplit> Repeat1 Fold04 <S3: recipe> <tibble [100 × 3]> <data.fram…
#>  5 <S3: rsplit> Repeat1 Fold05 <S3: recipe> <tibble [100 × 3]> <data.fram…
#>  6 <S3: rsplit> Repeat1 Fold06 <S3: recipe> <tibble [100 × 3]> <data.fram…
#>  7 <S3: rsplit> Repeat1 Fold07 <S3: recipe> <tibble [100 × 3]> <data.fram…
#>  8 <S3: rsplit> Repeat1 Fold08 <S3: recipe> <tibble [100 × 3]> <data.fram…
#>  9 <S3: rsplit> Repeat1 Fold09 <S3: recipe> <tibble [100 × 3]> <data.fram…
#> 10 <S3: rsplit> Repeat1 Fold10 <S3: recipe> <tibble [100 × 3]> <data.fram…
#> # ... with 40 more rows
…
