…
ames <- mutate(ames, Sale_Price = log10(Sale_Price))

ames_rec <-
  recipe(Sale_Price ~ ., data = ames[-(1:6), ]) |>
  step_other(Neighborhood, threshold = 0.05) |>
  step_dummy(all_nominal()) |>
  step_interact(~ starts_with("Central_Air"):Year_Built) |>
  step_ns(Longitude, Latitude, deg_free = 2) |>
  step_zv(all_predictors()) |>
  prep()

# return the training set (already embedded in ames_rec)
bake(ames_rec, new_data = NULL)
#> # A tibble: 2,924 × 259
#>    Lot_Frontage Lot_Area Year_Built Year_Remod_Add Mas_Vnr_Area
#>           <dbl>    <int>      <int>          <int>        <dbl>
#>  1           41     4920       2001           2001            0
#>  2           43     5005       1992           1992            0
#>  3           39     5389       1995           1996            0
#>  4           60     7500       1999           1999            0
#>  5           75    10000       1993           1994            0
#>  6            0     7980       1992           2007            0
#>  7           63     8402       1998           1998            0
#>  8           85    10176       1990           1990            0
#>  9            0     6820       1985           1985            0
#> 10           47    53504       2003           2003          603
#> # ℹ 2,914 more rows
#> # ℹ 254 more variables: BsmtFin_SF_1 <dbl>, BsmtFin_SF_2 <dbl>,
#> #   Bsmt_Unf_SF <dbl>, Total_Bsmt_SF <dbl>, First_Flr_SF <int>,
#> #   Second_Flr_SF <int>, Gr_Liv_Area <int>, Bsmt_Full_Bath <dbl>,
#> #   Bsmt_Half_Bath <dbl>, Full_Bath <int>, Half_Bath <int>,
#> #   Bedroom_AbvGr <int>, Kitchen_AbvGr <int>, TotRms_AbvGrd <int>,
#> #   Fireplaces <int>, Garage_Cars <dbl>, Garage_Area <dbl>, …
…
