Check Variable Class — check_class • recipes
…
    Examples

library(dplyr)
library(modeldata)
data(okc)

# Learn the classes on the train set
train <- okc[1:1000, ]
test  <- okc[1001:2000, ]
recipe(train, age ~ . ) %>%
  check_class(everything()) %>%
  prep(train, strings_as_factors = FALSE) %>%
  bake(test)

#> # A tibble: 1,000 x 6
#>    diet                height location      date       Class   age
#>    <chr>                <int> <chr>         <date>     <fct> <int>
#>  1 NA                      66 san francisco 2012-06-27 other    34
#>  2 strictly anything       74 berkeley      2012-06-26 stem     23
#>  3 mostly anything         67 san francisco 2012-06-29 other    23
#>  4 anything                72 burlingame    2012-06-29 other    45
#>  5 strictly vegetarian     71 oakland       2012-06-29 stem     35
#>  6 mostly anything         66 san francisco 2011-10-17 other    20
#>  7 NA                      66 san francisco 2012-04-10 stem     39
#>  8 anything                67 san francisco 2012-06-29 other    39
#>  9 mostly anything         67 oakland       2012-06-29 other    35
#> 10 mostly anything         64 san francisco 2012-06-26 other    33
#> # … with 990 more rows

# Manual specification
recipe(train, age ~ .) %>%
  check_class(age, class_nm = "integer") %>%
  check_class(diet, location, class_nm = "character") %>%
  check_class(date, class_nm = "Date") %>%
  prep(train, strings_as_factors = FALSE) %>%
  bake(test)

#> # A tibble: 1,000 x 6
#>    diet                height location      date       Class   age
#>    <chr>                <int> <chr>         <date>     <fct> <int>
#>  1 NA                      66 san francisco 2012-06-27 other    34
#>  2 strictly anything       74 berkeley      2012-06-26 stem     23
#>  3 mostly anything         67 san francisco 2012-06-29 other    23
#>  4 anything                72 burlingame    2012-06-29 other    45
#>  5 strictly vegetarian     71 oakland       2012-06-29 stem     35
#>  6 mostly anything         66 san francisco 2011-10-17 other    20
#>  7 NA                      66 san francisco 2012-04-10 stem     39
#>  8 anything                67 san francisco 2012-06-29 other    39
#>  9 mostly anything         67 oakland       2012-06-29 other    35
#> 10 mostly anything         64 san francisco 2012-06-26 other    33
#> # … with 990 more rows
…
