…
``` r
library(dplyr)
data(Sacramento, package = "modeldata")

# Learn the classes on the train set
train <- Sacramento[1:500, ]
test <- Sacramento[501:nrow(Sacramento), ]
recipe(train, sqft ~ .) |>
  check_class(everything()) |>
  prep(train, strings_as_factors = FALSE) |>
  bake(test)
#> Warning: The `strings_as_factors` argument of `prep.recipe()` is deprecated as
#> of recipes 1.3.0.
#> ℹ Please use the `strings_as_factors` argument of `recipe()` instead.
#> # A tibble: 432 × 9
#>    city         zip    beds baths type   price latitude longitude  sqft
#>    <fct>        <fct> <int> <dbl> <fct>  <int>    <dbl>     <dbl> <int>
#>  1 SACRAMENTO   z958…     4   2   Resi… 328578     38.6     -122.  1659
#>  2 ELK_GROVE    z957…     3   3   Resi… 331000     38.4     -121.  2442
#>  3 RANCHO_CORD… z957…     4   3   Resi… 331500     38.6     -121.  2590
#>  4 SACRAMENTO   z958…     4   2   Resi… 340000     38.6     -122.  2155
#>  5 SACRAMENTO   z958…     3   2   Resi… 344755     38.7     -121.  1673
#>  6 SACRAMENTO   z958…     3   2   Resi… 345746     38.5     -121.  1810
#>  7 ELK_GROVE    z957…     4   2   Resi… 351000     38.4     -121.  2789
#>  8 GALT         z956…     4   2   Resi… 353767     38.3     -121.  1606
#>  9 GALT         z956…     5   3.5 Resi… 355000     38.3     -121.  3499
#> 10 SACRAMENTO   z958…     4   2   Resi… 356035     38.7     -122.  2166
#> # ℹ 422 more rows

# Manual specification
recipe(train, sqft ~ .) |>
  check_class(sqft, class_nm = "integer") |>
  check_class(city, zip, type, class_nm = "factor") |>
  check_class(latitude, longitude, class_nm = "numeric") |>
  prep(train, strings_as_factors = FALSE) |>
  bake(test)
#> # A tibble: 432 × 9
#>    city         zip    beds baths type   price latitude longitude  sqft
#>    <fct>        <fct> <int> <dbl> <fct>  <int>    <dbl>     <dbl> <int>
#>  1 SACRAMENTO   z958…     4   2   Resi… 328578     38.6     -122.  1659
#>  2 ELK_GROVE    z957…     3   3   Resi… 331000     38.4     -121.  2442
#>  3 RANCHO_CORD… z957…     4   3   Resi… 331500     38.6     -121.  2590
#>  4 SACRAMENTO   z958…     4   2   Resi… 340000     38.6     -122.  2155
#>  5 SACRAMENTO   z958…     3   2   Resi… 344755     38.7     -121.  1673
#>  6 SACRAMENTO   z958…     3   2   Resi… 345746     38.5     -121.  1810
#>  7 ELK_GROVE    z957…     4   2   Resi… 351000     38.4     -121.  2789
#>  8 GALT         z956…     4   2   Resi… 353767     38.3     -121.  1606
#>  9 GALT         z956…     5   3.5 Resi… 355000     38.3     -121.  3499
#> 10 SACRAMENTO   z958…     4   2   Resi… 356035     38.7     -122.  2166
#> # ℹ 422 more rows
…
