…
## Examples

``` r
data(credit_data, package = "modeldata")

# If the test passes, `new_data` is returned unaltered
recipe(credit_data) |>
  check_new_values(Home) |>
  prep() |>
  bake(new_data = credit_data)
#> # A tibble: 4,454 × 14
#>    Status Seniority Home     Time   Age Marital Records Job    Expenses
#>    <fct>      <int> <fct>   <int> <int> <fct>   <fct>   <fct>     <int>
#>  1 good           9 rent       60    30 married no      freel…       73
#>  2 good          17 rent       60    58 widow   no      fixed        48
#>  3 bad           10 owner      36    46 married yes     freel…       90
#>  4 good           0 rent       60    24 single  no      fixed        63
#>  5 good           0 rent       36    26 single  no      fixed        46
#>  6 good           1 owner      60    36 married no      fixed        75
#>  7 good          29 owner      60    44 married no      fixed        75
#>  8 good           9 parents    12    27 single  no      fixed        35
#>  9 good           0 owner      60    32 married no      freel…       90
#> 10 bad            0 parents    48    41 married no      parti…       90
#> # ℹ 4,444 more rows
#> # ℹ 5 more variables: Income <int>, Assets <int>, Debt <int>,
#> #   Amount <int>, Price <int>
# If `new_data` contains values not in `x` at the [prep()] function,
# the [bake()] function will break.
if (FALSE) { # \dontrun{
recipe(credit_data |> dplyr::filter(Home != "rent")) |>
  check_new_values(Home) |>
  prep() |>
  bake(new_data = credit_data)
} # }

# By default missing values are ignored, so this passes.
recipe(credit_data |> dplyr::filter(!is.na(Home))) |>
  check_new_values(Home) |>
  prep() |>
  bake(credit_data)
#> # A tibble: 4,454 × 14
#>    Status Seniority Home     Time   Age Marital Records Job    Expenses
#>    <fct>      <int> <fct>   <int> <int> <fct>   <fct>   <fct>     <int>
#>  1 good           9 rent       60    30 married no      freel…       73
#>  2 good          17 rent       60    58 widow   no      fixed        48
#>  3 bad           10 owner      36    46 married yes     freel…       90
#>  4 good           0 rent       60    24 single  no      fixed        63
#>  5 good           0 rent       36    26 single  no      fixed        46
#>  6 good           1 owner      60    36 married no      fixed        75
#>  7 good          29 owner      60    44 married no      fixed        75
#>  8 good           9 parents    12    27 single  no      fixed        35
#>  9 good           0 owner      60    32 married no      freel…       90
#> 10 bad            0 parents    48    41 married no      parti…       90
#> # ℹ 4,444 more rows
#> # ℹ 5 more variables: Income <int>, Assets <int>, Debt <int>,
#> #   Amount <int>, Price <int>
…
