…
# Centering on all predictors except carbon
rec |>
  step_center(all_predictors(), -carbon) |>
  prep(training = biomass) |>
  bake(new_data = NULL)
#> # A tibble: 536 × 8
#>    sample         dataset carbon hydrogen oxygen nitrogen  sulfur   HHV
#>    <chr>          <chr>    <dbl>    <dbl>  <dbl>    <dbl>   <dbl> <dbl>
#>  1 Akhrot Shell   Traini…   49.8   0.181   4.37   -0.667  -0.234   20.0
#>  2 Alabama Oak W… Traini…   49.5   0.241   2.73   -0.877  -0.234   19.2
#>  3 Alder          Traini…   47.8   0.341   7.68   -0.967  -0.214   18.3
#>  4 Alfalfa        Traini…   45.1  -0.489  -2.97    2.22   -0.0736  18.2
#>  5 Alfalfa Seed … Traini…   46.8  -0.0586  2.15   -0.0772 -0.214   18.4
#>  6 Alfalfa Stalks Traini…   45.4   0.291   1.63    0.963  -0.134   18.5
#>  7 Alfalfa Stems  Traini…   47.2   0.531  -0.383   1.60   -0.0336  18.7
#>  8 Alfalfa Straw  Traini…   45.7   0.241   1.13    0.623  -0.0336  18.3
#>  9 Almond         Traini…   48.8   0.0414  2.33   -0.277  -0.234   18.6
#> 10 Almond Hull    Traini…   47.1   0.441   1.43    0.123  -0.134   18.9
#> # ℹ 526 more rows
```
