…
# default naming
rec <- recipe(species ~ ., data = penguins) |>
  step_classdist(all_numeric_predictors(),
    class = species,
    pool = FALSE, mean_func = mean2
  )

rec_dists <- prep(rec, training = penguins)

dists_to_species <- bake(rec_dists, new_data = penguins)
## on log scale:
dist_cols <- grep("classdist", names(dists_to_species), value = TRUE)
dists_to_species[, c("species", dist_cols)]
#> # A tibble: 333 × 4
#>    species classdist_Adelie classdist_Chinstrap classdist_Gentoo
#>    <fct>              <dbl>               <dbl>            <dbl>
#>  1 Adelie             1.04                 3.19             5.10
#>  2 Adelie             0.670                2.61             4.61
#>  3 Adelie             1.45                 2.39             4.68
#>  4 Adelie             1.20                 3.42             5.08
#>  5 Adelie             1.72                 3.57             5.35
#>  6 Adelie             0.903                2.87             4.90
#>  7 Adelie             1.78                 3.61             4.89
#>  8 Adelie             1.66                 2.17             4.88
#>  9 Adelie             2.05                 3.85             5.45
#> 10 Adelie             2.72                 4.24             5.35
#> # ℹ 323 more rows
…
