Center and scale numeric data — step_normalize • recipes
…
biomass_te[1:10, names(transformed_te)]
#>    carbon hydrogen oxygen nitrogen sulfur    HHV
#> 15  46.35     5.67  47.20     0.30   0.22 18.275
#> 20  43.25     5.50  48.06     2.85   0.34 17.560
#> 26  42.70     5.50  49.10     2.40   0.30 17.173
#> 31  46.40     6.10  37.30     1.80   0.50 18.851
#> 36  48.76     6.32  42.77     0.20   0.00 20.547
#> 41  44.30     5.50  41.70     0.70   0.20 18.467
#> 46  38.94     5.23  54.13     1.19   0.51 15.095
#> 51  42.10     4.66  33.80     0.95   0.20 16.240
#> 55  29.20     4.40  31.10     0.14   4.90 11.147
#> 65  27.80     3.77  23.69     4.63   1.05 10.750
transformed_te
#> # A tibble: 80 x 6
#>     carbon hydrogen oxygen nitrogen sulfur   HHV
#>      <dbl>    <dbl>  <dbl>    <dbl>  <dbl> <dbl>
#>  1 -0.193    0.176    47.2     0.3    0.22  18.3
#>  2 -0.490    0.0342   48.1     2.85   0.34  17.6
#>  3 -0.543    0.0342   49.1     2.4    0.3   17.2
#>  4 -0.188    0.535    37.3     1.8    0.5   18.9
#>  5  0.0390   0.719    42.8     0.2    0     20.5
#>  6 -0.390    0.0342   41.7     0.7    0.2   18.5
#>  7 -0.904   -0.191    54.1     1.19   0.51  15.1
#>  8 -0.601   -0.668    33.8     0.95   0.2   16.2
#>  9 -1.84    -0.885    31.1     0.14   4.9   11.1
#> 10 -1.97    -1.41     23.7     4.63   1.05  10.8
#> # … with 70 more rows
…
