…
with_dummies <- bake(rec2, new_data = covers)
with_dummies
#> # A tibble: 40 × 3
#>    description                                    rocks ratake.families
#>    <fct>                                          <int>           <int>
#>  1 1,cathedral family,rock outcrop complex,extre…     1               0
#>  2 2,vanet,ratake families complex,very stony         1               1
#>  3 3,haploborolis,rock outcrop complex,rubbly         1               0
#>  4 4,ratake family,rock outcrop complex,rubbly        1               0
#>  5 5,vanet family,rock outcrop complex complex,r…     1               0
#>  6 6,vanet,wetmore families,rock outcrop complex…     1               0
#>  7 7,gothic family                                    0               0
#>  8 8,supervisor,limber families complex               0               0
#>  9 9,troutville family,very stony                     1               0
#> 10 10,bullwark,catamount families,rock outcrop c…     1               0
#> # ℹ 30 more rows
…
