Distances to Class Centroids — step_classdist • recipes
…
# in case of missing data...
mean2 <- function(x) mean(x, na.rm = TRUE)

rec <- recipe(Species ~ ., data = iris) %>%
  step_classdist(all_predictors(), class = "Species",
                 pool = FALSE, mean_func = mean2)

rec_dists <- prep(rec, training = iris)

dists_to_species <- bake(rec_dists, new_data = iris, everything())
## on log scale:
dist_cols <- grep("classdist", names(dists_to_species), value = TRUE)
dists_to_species[, c("Species", dist_cols)]
#> # A tibble: 150 x 4
#>    Species classdist_setosa classdist_versicolor classdist_virginica
#>    <fct>              <dbl>                <dbl>               <dbl>
#>  1 setosa            -0.800                 4.74                5.21
#>  2 setosa             0.733                 4.42                5.04
#>  3 setosa             0.250                 4.55                5.08
#>  4 setosa             0.534                 4.42                4.95
#>  5 setosa            -0.272                 4.79                5.22
#>  6 setosa             1.31                  4.79                5.21
#>  7 setosa             1.23                  4.56                5.04
#>  8 setosa            -1.07                  4.64                5.12
#>  9 setosa             1.10                  4.30                4.89
#> 10 setosa             1.16                  4.54                5.05
#> # … with 140 more rows
…
