…
rec <- recipe(HHV ~ carbon + hydrogen + oxygen + nitrogen +
  sulfur + total,
data = biomass_tr
)

ratio_recipe <- rec |>
  # all predictors over total
  step_ratio(all_numeric_predictors(), denom = total,
             keep_original_cols = FALSE)

ratio_recipe <- prep(ratio_recipe, training = biomass_tr)

ratio_data <- bake(ratio_recipe, biomass_te)
ratio_data
#> # A tibble: 80 × 6
#>      HHV carbon_o_total hydrogen_o_total oxygen_o_total
#>    <dbl>          <dbl>            <dbl>          <dbl>
#>  1  18.3          0.465           0.0568          0.473
#>  2  17.6          0.432           0.055           0.481
#>  3  17.2          0.427           0.055           0.491
#>  4  18.9          0.504           0.0662          0.405
#>  5  20.5          0.497           0.0645          0.436
#>  6  18.5          0.479           0.0595          0.451
#>  7  15.1          0.389           0.0523          0.541
#>  8  16.2          0.515           0.0570          0.414
#>  9  11.1          0.419           0.0631          0.446
#> 10  10.8          0.456           0.0619          0.389
#> # ℹ 70 more rows
#> # ℹ 2 more variables: nitrogen_o_total <dbl>, sulfur_o_total <dbl>
```
