Create traditional dummy variables — step_dummy • recipes
…
tidy(dummies, number = 1)
#> # A tibble: 36 × 3
#>    terms columns         id         
#>    <chr> <chr>           <chr>      
#>  1 city  AUBURN          dummy_ypfCg
#>  2 city  CAMERON_PARK    dummy_ypfCg
#>  3 city  CARMICHAEL      dummy_ypfCg
#>  4 city  CITRUS_HEIGHTS  dummy_ypfCg
#>  5 city  COOL            dummy_ypfCg
#>  6 city  DIAMOND_SPRINGS dummy_ypfCg
#>  7 city  EL_DORADO       dummy_ypfCg
#>  8 city  EL_DORADO_HILLS dummy_ypfCg
#>  9 city  ELK_GROVE       dummy_ypfCg
#> 10 city  ELVERTA         dummy_ypfCg
#> # ℹ 26 more rows
tidy(dummies_one_hot, number = 1)
#> # A tibble: 37 × 3
#>    terms columns         id         
#>    <chr> <chr>           <chr>      
#>  1 city  ANTELOPE        dummy_ONQD4
#>  2 city  AUBURN          dummy_ONQD4
#>  3 city  CAMERON_PARK    dummy_ONQD4
#>  4 city  CARMICHAEL      dummy_ONQD4
#>  5 city  CITRUS_HEIGHTS  dummy_ONQD4
#>  6 city  COOL            dummy_ONQD4
#>  7 city  DIAMOND_SPRINGS dummy_ONQD4
#>  8 city  EL_DORADO       dummy_ONQD4
#>  9 city  EL_DORADO_HILLS dummy_ONQD4
#> 10 city  ELK_GROVE       dummy_ONQD4
#> # ℹ 27 more rows
…
