…
# default naming
rec <- recipe(species ~ ., data = penguins) |>
  step_classdist_shrunken(all_numeric_predictors(),
    class = species,
    threshold = 3 / 4
  )

rec_dists <- prep(rec, training = penguins)

dists_to_species <- bake(rec_dists, new_data = penguins)
## on log scale:
dist_cols <- grep("classdist", names(dists_to_species), value = TRUE)
dists_to_species[, c("species", dist_cols)]
#> # A tibble: 333 × 4
#>    species classdist_Adelie classdist_Gentoo classdist_Chinstrap
#>    <fct>              <dbl>            <dbl>               <dbl>
#>  1 Adelie             1.49            1.72                 1.49 
#>  2 Adelie             1.03            1.35                 1.03 
#>  3 Adelie             1.56            1.93                 1.56 
#>  4 Adelie             1.42            1.78                 1.42 
#>  5 Adelie             1.11            1.48                 1.11 
#>  6 Adelie             1.61            1.86                 1.61 
#>  7 Adelie             0.602           0.0916               0.602
#>  8 Adelie             2.02            2.29                 2.02 
#>  9 Adelie             0.898           1.26                 0.898
#> 10 Adelie             0.756           0.673                0.756
#> # ℹ 323 more rows

tidy(rec, number = 1)
#> # A tibble: 1 × 6
#>   terms                    value class type  threshold id              
#>   <chr>                    <dbl> <chr> <chr>     <dbl> <chr>           
#> 1 all_numeric_predictors()    NA NA    NA           NA classdist_shrun…
tidy(rec_dists, number = 1)
#> # A tibble: 36 × 6
#>    terms          value class     type     threshold id                
#>    <chr>          <dbl> <chr>     <chr>        <dbl> <chr>             
#>  1 bill_length_mm  44.0 Adelie    global        0.75 classdist_shrunke…
#>  2 bill_length_mm  38.8 Adelie    by_class      0.75 classdist_shrunke…
#>  3 bill_length_mm   0   Adelie    shrunken      0.75 classdist_shrunke…
#>  4 bill_length_mm  44.0 Gentoo    global        0.75 classdist_shrunke…
#>  5 bill_length_mm  47.6 Gentoo    by_class      0.75 classdist_shrunke…
#>  6 bill_length_mm   0   Gentoo    shrunken      0.75 classdist_shrunke…
#>  7 bill_length_mm  44.0 Chinstrap global        0.75 classdist_shrunke…
#>  8 bill_length_mm  48.8 Chinstrap by_class      0.75 classdist_shrunke…
#>  9 bill_length_mm   0   Chinstrap shrunken      0.75 classdist_shrunke…
#> 10 bill_depth_mm   17.2 Adelie    global        0.75 classdist_shrunke…
#> # ℹ 26 more rows
```
