Data Depths — step_depth • recipes
…
The function will create a new column for every unique value of
the class variable. The resulting variables will not
replace the original values and have the prefix depth_.

    Examples

# halfspace depth is the default
rec <- recipe(Species ~ ., data = iris) %>%
  step_depth(all_predictors(), class = "Species")

rec_dists <- prep(rec, training = iris)

dists_to_species <- bake(rec_dists, new_data = iris)
dists_to_species
#> # A tibble: 150 x 8
#>    Sepal.Length Sepal.Width Petal.Length Petal.Width Species depth_setosa
#>           <dbl>       <dbl>        <dbl>       <dbl> <fct>          <dbl>
#>  1          5.1         3.5          1.4         0.2 setosa          0.2 
#>  2          4.9         3            1.4         0.2 setosa          0.04
#>  3          4.7         3.2          1.3         0.2 setosa          0.1 
#>  4          4.6         3.1          1.5         0.2 setosa          0.08
#>  5          5           3.6          1.4         0.2 setosa          0.14
#>  6          5.4         3.9          1.7         0.4 setosa          0.04
#>  7          4.6         3.4          1.4         0.3 setosa          0.04
#>  8          5           3.4          1.5         0.2 setosa          0.28
#>  9          4.4         2.9          1.4         0.2 setosa          0.02
#> 10          4.9         3.1          1.5         0.1 setosa          0.02
#> # … with 140 more rows, and 2 more variables: depth_versicolor <dbl>,
#> #   depth_virginica <dbl>
…
