Rename variables by name using dplyr — step_rename • recipes
…
vars <- c(var1 = "cyl", var2 = "am")
car_rec <-
  recipe(~ ., data = mtcars) %>%
  step_rename(!!vars)

car_rec %>%
  prep() %>%
  bake(new_data = NULL)
#> # A tibble: 32 × 11
#>      mpg `<chr>...var1`  disp    hp  drat    wt  qsec    vs `<chr>...var2`  gear
#>    <dbl>          <dbl> <dbl> <dbl> <dbl> <dbl> <dbl> <dbl>          <dbl> <dbl>
#>  1  21                6  160    110  3.9   2.62  16.5     0              1     4
#>  2  21                6  160    110  3.9   2.88  17.0     0              1     4
#>  3  22.8              4  108     93  3.85  2.32  18.6     1              1     4
#>  4  21.4              6  258    110  3.08  3.22  19.4     1              0     3
#>  5  18.7              8  360    175  3.15  3.44  17.0     0              0     3
#>  6  18.1              6  225    105  2.76  3.46  20.2     1              0     3
#>  7  14.3              8  360    245  3.21  3.57  15.8     0              0     3
#>  8  24.4              4  147.    62  3.69  3.19  20       1              0     4
#>  9  22.8              4  141.    95  3.92  3.15  22.9     1              0     4
#> 10  19.2              6  168.   123  3.92  3.44  18.3     1              0     4
#> # … with 22 more rows, and 1 more variable: carb <dbl>
…
