…
count_values <- bake(rec2, new_data = covers)
count_values
#> # A tibble: 40 × 3
#>    description                                             rocks  famil
#>    <fct>                                                   <int>  <dbl>
#>  1 1,cathedral family,rock outcrop complex,extremely stony     2 0.0182
#>  2 2,vanet,ratake families complex,very stony                  1 0.0238
#>  3 3,haploborolis,rock outcrop complex,rubbly                  1 0     
#>  4 4,ratake family,rock outcrop complex,rubbly                 1 0.0233
#>  5 5,vanet family,rock outcrop complex complex,rubbly          1 0.02  
#>  6 6,vanet,wetmore families,rock outcrop complex,stony         2 0.0196
#>  7 7,gothic family                                             0 0.0667
#>  8 8,supervisor,limber families complex                        0 0.0278
#>  9 9,troutville family,very stony                              1 0.0333
#> 10 10,bullwark,catamount families,rock outcrop complex,ru…     1 0.0172
#> # ℹ 30 more rows
…
