…
## Examples

``` r
recipe(Ozone ~ ., data = airquality) |>
  step_naomit(Solar.R) |>
  prep(airquality, verbose = FALSE) |>
  bake(new_data = NULL)
#> # A tibble: 146 × 6
#>    Solar.R  Wind  Temp Month   Day Ozone
#>      <int> <dbl> <int> <int> <int> <int>
#>  1     190   7.4    67     5     1    41
#>  2     118   8      72     5     2    36
#>  3     149  12.6    74     5     3    12
#>  4     313  11.5    62     5     4    18
#>  5     299   8.6    65     5     7    23
#>  6      99  13.8    59     5     8    19
#>  7      19  20.1    61     5     9     8
#>  8     194   8.6    69     5    10    NA
#>  9     256   9.7    69     5    12    16
#> 10     290   9.2    66     5    13    11
#> # ℹ 136 more rows
```
