…
biomass_tr <- biomass[biomass$dataset == "Training", ]
biomass_te <- biomass[biomass$dataset == "Testing", ]

rec <- recipe(
  HHV ~ carbon + hydrogen + oxygen + nitrogen + sulfur,
  data = biomass_tr
)

with_splines <- rec |>
  step_ns(carbon, hydrogen)
with_splines <- prep(with_splines, training = biomass_tr)

expanded <- bake(with_splines, biomass_te)
expanded
#> # A tibble: 80 × 8
#>    oxygen nitrogen sulfur   HHV carbon_ns_1 carbon_ns_2 hydrogen_ns_1
#>     <dbl>    <dbl>  <dbl> <dbl>       <dbl>       <dbl>         <dbl>
#>  1   47.2     0.3    0.22  18.3       0.524      -0.236         0.563
#>  2   48.1     2.85   0.34  17.6       0.493      -0.241         0.556
#>  3   49.1     2.4    0.3   17.2       0.487      -0.241         0.556
#>  4   37.3     1.8    0.5   18.9       0.524      -0.236         0.574
#>  5   42.8     0.2    0     20.5       0.542      -0.226         0.577
#>  6   41.7     0.7    0.2   18.5       0.504      -0.240         0.556
#>  7   54.1     1.19   0.51  15.1       0.440      -0.233         0.544
#>  8   33.8     0.95   0.2   16.2       0.480      -0.240         0.512
#>  9   31.1     0.14   4.9   11.1       0.285      -0.169         0.493
#> 10   23.7     4.63   1.05  10.8       0.260      -0.155         0.442
#> # ℹ 70 more rows
#> # ℹ 1 more variable: hydrogen_ns_2 <dbl>
```
