…
rec <- recipe(
  HHV ~ carbon + hydrogen + oxygen + nitrogen + sulfur,
  data = biomass_tr
)

library(dplyr)
smaller_set <- rec |>
  step_rm(contains("gen"))

smaller_set <- prep(smaller_set, training = biomass_tr)

filtered_te <- bake(smaller_set, biomass_te)
filtered_te
#> # A tibble: 80 × 3
#>    carbon sulfur   HHV
#>     <dbl>  <dbl> <dbl>
#>  1   46.4   0.22  18.3
#>  2   43.2   0.34  17.6
#>  3   42.7   0.3   17.2
#>  4   46.4   0.5   18.9
#>  5   48.8   0     20.5
#>  6   44.3   0.2   18.5
#>  7   38.9   0.51  15.1
#>  8   42.1   0.2   16.2
#>  9   29.2   4.9   11.1
#> 10   27.8   1.05  10.8
#> # ℹ 70 more rows
…
