…
rng <- extendrange(c(pca_data$PC1, pca_data$PC2))
plot(pca_data$PC1, pca_data$PC2,
  xlim = rng, ylim = rng
)


with_thresh <- rec |>
  step_normalize(all_numeric()) |>
  step_pca(all_numeric(), threshold = .99)
with_thresh <- prep(with_thresh, training = USArrests)
bake(with_thresh, USArrests)
#> # A tibble: 50 × 4
#>        PC1     PC2     PC3      PC4
#>      <dbl>   <dbl>   <dbl>    <dbl>
#>  1 -0.976  -1.12    0.440   0.155  
#>  2 -1.93   -1.06   -2.02   -0.434  
#>  3 -1.75    0.738  -0.0542 -0.826  
#>  4  0.140  -1.11   -0.113  -0.181  
#>  5 -2.50    1.53   -0.593  -0.339  
#>  6 -1.50    0.978  -1.08    0.00145
#>  7  1.34    1.08    0.637  -0.117  
#>  8 -0.0472  0.322   0.711  -0.873  
#>  9 -2.98   -0.0388  0.571  -0.0953 
#> 10 -1.62   -1.27    0.339   1.07   
#> # ℹ 40 more rows
…
