…
biomass_te[1:10, names(transformed_te)]
#>    carbon hydrogen oxygen nitrogen sulfur    HHV
#> 15  46.35     5.67  47.20     0.30   0.22 18.275
#> 20  43.25     5.50  48.06     2.85   0.34 17.560
#> 26  42.70     5.50  49.10     2.40   0.30 17.173
#> 31  46.40     6.10  37.30     1.80   0.50 18.851
#> 36  48.76     6.32  42.77     0.20   0.00 20.547
#> 41  44.30     5.50  41.70     0.70   0.20 18.467
#> 46  38.94     5.23  54.13     1.19   0.51 15.095
#> 51  42.10     4.66  33.80     0.95   0.20 16.240
#> 55  29.20     4.40  31.10     0.14   4.90 11.147
#> 65  27.80     3.77  23.69     4.63   1.05 10.750
transformed_te
#> # A tibble: 80 × 6
#>    carbon hydrogen oxygen nitrogen sulfur   HHV
#>     <dbl>    <dbl>  <dbl>    <dbl>  <dbl> <dbl>
#>  1  0.384    0.490   47.2     0.3    0.22  18.3
#>  2  0.347    0.475   48.1     2.85   0.34  17.6
#>  3  0.340    0.475   49.1     2.4    0.3   17.2
#>  4  0.385    0.527   37.3     1.8    0.5   18.9
#>  5  0.414    0.546   42.8     0.2    0     20.5
#>  6  0.360    0.475   41.7     0.7    0.2   18.5
#>  7  0.295    0.451   54.1     1.19   0.51  15.1
#>  8  0.333    0.402   33.8     0.95   0.2   16.2
#>  9  0.177    0.379   31.1     0.14   4.9   11.1
#> 10  0.160    0.325   23.7     4.63   1.05  10.8
#> # ℹ 70 more rows
…
