…
biomass_tr <- biomass[biomass$dataset == "Training", ]
biomass_te <- biomass[biomass$dataset == "Testing", ]

rec <- recipe(
  HHV ~ carbon + hydrogen + oxygen + nitrogen + sulfur,
  data = biomass_tr
)

transformed_te <- rec |>
  step_relu(carbon, shift = 40) |>
  prep(biomass_tr) |>
  bake(biomass_te)

transformed_te
#> # A tibble: 80 × 7
#>    carbon hydrogen oxygen nitrogen sulfur   HHV right_relu_carbon
#>     <dbl>    <dbl>  <dbl>    <dbl>  <dbl> <dbl>             <dbl>
#>  1   46.4     5.67   47.2     0.3    0.22  18.3              6.35
#>  2   43.2     5.5    48.1     2.85   0.34  17.6              3.25
#>  3   42.7     5.5    49.1     2.4    0.3   17.2              2.70
#>  4   46.4     6.1    37.3     1.8    0.5   18.9              6.4 
#>  5   48.8     6.32   42.8     0.2    0     20.5              8.76
#>  6   44.3     5.5    41.7     0.7    0.2   18.5              4.30
#>  7   38.9     5.23   54.1     1.19   0.51  15.1              0   
#>  8   42.1     4.66   33.8     0.95   0.2   16.2              2.10
#>  9   29.2     4.4    31.1     0.14   4.9   11.1              0   
#> 10   27.8     3.77   23.7     4.63   1.05  10.8              0   
#> # ℹ 70 more rows
```
