Creating Custom Step Functions • recipes
…
Running the example

Let’s use the example data to make sure that it works:

rec_obj <- recipe(HHV ~ ., data = biomass_tr[, -(1:2)])
rec_obj <- rec_obj %>%
  step_percentile(all_predictors(), approx = TRUE) 

rec_obj <- prepare(rec_obj, training = biomass_tr)
#> step 1 percentile training

percentiles <- bake(rec_obj, biomass_te)
percentiles
#> # A tibble: 80 x 5
#>    carbon hydrogen oxygen nitrogen sulfur
#>     <dbl>    <dbl>  <dbl>    <dbl>  <dbl>
#>  1 0.4209   0.4500 0.9026    0.215  0.735
#>  2 0.1800   0.3850 0.9217    0.928  0.839
#>  3 0.1561   0.3850 0.9447    0.900  0.805
#>  4 0.4233   0.7750 0.2800    0.845  0.902
#>  5 0.6662   0.8667 0.6314    0.155  0.090
#>  6 0.2175   0.3850 0.5363    0.495  0.700
#>  7 0.0803   0.2713 0.9859    0.695  0.903
#>  8 0.1395   0.1260 0.1604    0.606  0.700
#>  9 0.0226   0.1035 0.1312    0.126  0.996
#> 10 0.0178   0.0821 0.0987    0.972  0.974
#> # ... with 70 more rows
…
