Selecting Variables • recipes
…
dummied <- rec %>% step_dummy(all_nominal())

This will capture any variables that are either character strings or factors: Status and Records. However, since Status is our outcome, we might want to keep it as a factor so we can subtract that variable out either by name or by role:

dummied <- rec %>% step_dummy(Records) # or
dummied <- rec %>% step_dummy(all_nominal(), - Status) # or
dummied <- rec %>% step_dummy(all_nominal(), - all_outcomes()) 

Using the last definition:

dummied <- prepare(dummied, training = credit_data)
#> step 1 dummy training
with_dummy <- bake(dummied, newdata = credit_data)
with_dummy
#> # A tibble: 4,454 x 4
#>    Seniority  Time   Age Records_yes
#>        <int> <int> <int>       <dbl>
#>  1         9    60    30           0
#>  2        17    60    58           0
#>  3        10    36    46           1
#>  4         0    60    24           0
#>  5         0    36    26           0
#>  6         1    60    36           0
#>  7        29    60    44           0
#>  8         9    12    27           0
#>  9         0    60    32           0
#> 10         0    48    41           0
#> # ... with 4,444 more rows
…
