Basic Recipes • recipes
…
If this is the only preprocessing steps for the predictors, we can now estimate the means and standard deviations from the training set. The prep function is used with a recipe and a data set:

trained_rec <- prep(standardized, training = seg_train)

Now that the statistics have been estimated, the preprocessing can be applied to the training and test set:

train_data <- bake(trained_rec, newdata = seg_train)
test_data  <- bake(trained_rec, newdata = seg_test)

bake returns a tibble that, by default, includes all of the variables:

class(test_data)
#> [1] "tbl_df"     "tbl"        "data.frame"
test_data
#> # A tibble: 1,010 x 59
#>    Class AngleC… AreaC… AvgIn… AvgIn… AvgIn… AvgInt… Convex… Conve… DiffI…
#>    <fct>   <dbl>  <dbl>  <dbl>  <dbl>  <dbl>   <dbl>   <dbl>  <dbl>  <dbl>
#>  1 PS     1.07   -0.647 -0.684 -1.18  -0.926 -0.924  -0.420   0.337 -0.870
#>  2 PS    -1.80   -0.185 -0.632 -0.479 -0.809 -0.667  -0.493   0.814 -0.829
#>  3 WS    -1.03   -0.707  1.21   3.04   0.348  1.39   -0.986   1.28   0.372
#>  4 WS     1.69   -0.684  0.806  2.66   0.296  0.893  -0.947   1.16   0.307
#>  5 PS     1.81   -0.342 -0.668 -1.17  -0.843 -0.928  -0.0583 -0.803 -0.887
#>  6 WS    -1.48    0.784 -0.682 -0.628 -0.881 -0.594  -0.0969 -0.920 -0.920
#>  7 WS     1.27    0.272 -0.672 -0.625 -0.809 -0.516  -0.249  -0.367 -0.944
#>  8 WS    -1.58    0.457  0.283  1.32  -0.613 -0.0891 -0.831   1.02  -0.126
#>  9 PS    -0.796  -0.412 -0.669 -1.17  -0.845 -0.926   0.382  -1.19  -0.889
#> 10 PS     0.0363 -0.638 -0.535  0.182 -0.555 -0.0253 -0.846   1.11  -0.819
#> # ... with 1,000 more rows, and 49 more variables: DiffIntenDensityCh3
#> #   <dbl>, DiffIntenDensityCh4 <dbl>, EntropyIntenCh1 <dbl>,
#> #   EntropyIntenCh3 <dbl>, EntropyIntenCh4 <dbl>, EqCircDiamCh1 <dbl>,
#> #   EqEllipseLWRCh1 <dbl>, EqEllipseOblateVolCh1 <dbl>,
#> #   EqEllipseProlateVolCh1 <dbl>, EqSphereAreaCh1 <dbl>, EqSphereVolCh1
#> #   <dbl>, FiberAlign2Ch3 <dbl>, FiberAlign2Ch4 <dbl>, FiberLengthCh1
#> #   <dbl>, FiberWidthCh1 <dbl>, IntenCoocASMCh3 <dbl>, IntenCoocASMCh4
#> #   <dbl>, IntenCoocContrastCh3 <dbl>, IntenCoocContrastCh4 <dbl>,
#> #   IntenCoocEntropyCh3 <dbl>, IntenCoocEntropyCh4 <dbl>, IntenCoocMaxCh3
…
