Data Depths — step_depth • recipes
…
    Examples

library(magrittr)

# halfspace depth is the default
rec <- recipe(Species ~ ., data = iris) %>%
  step_depth(~ all_predictors(), class = ~ Species)

rec_dists <- learn(rec, training = iris)
#> step 1 depth training 

dists_to_species <- process(rec_dists, newdata = iris)
dists_to_species
#> # A tibble: 150 × 7
#>    Sepal.Length Sepal.Width Petal.Length Petal.Width depth_setosa
#>           <dbl>       <dbl>        <dbl>       <dbl>        <dbl>
#> 1           5.1         3.5          1.4         0.2         0.20
#> 2           4.9         3.0          1.4         0.2         0.04
#> 3           4.7         3.2          1.3         0.2         0.10
#> 4           4.6         3.1          1.5         0.2         0.08
#> 5           5.0         3.6          1.4         0.2         0.14
#> 6           5.4         3.9          1.7         0.4         0.04
#> 7           4.6         3.4          1.4         0.3         0.02
#> 8           5.0         3.4          1.5         0.2         0.28
#> 9           4.4         2.9          1.4         0.2         0.02
#> 10          4.9         3.1          1.5         0.1         0.02
#> # ... with 140 more rows, and 2 more variables: depth_versicolor <dbl>,
#> #   depth_virginica <dbl>
…
