Distances to Class Centroids — step_classdist • recipes
…
# in case of missing data...
mean2 <- function(x) mean(x, na.rm = TRUE)

rec <- recipe(Species ~ ., data = iris) %>%
  step_classdist(~ predictors(), class = ~ Species,
                 pool = FALSE, mean_func = mean2)

rec_dists <- learn(rec, training = iris)
#> step 1 classdist training 

dists_to_species <- process(rec_dists, newdata = iris)
## on log scale:
dists_to_species[, c("Species", grep("classdist", names(dists_to_species), value = TRUE))]
#> # A tibble: 150 × 4
#>    Species classdist_setosa classdist_versicolor classdist_virginica
#>     <fctr>            <dbl>                <dbl>               <dbl>
#> 1   setosa       -0.8004790             4.743231            5.209136
#> 2   setosa        0.7328938             4.422633            5.036790
#> 3   setosa        0.2502412             4.553039            5.078257
#> 4   setosa        0.5342728             4.416172            4.946213
#> 5   setosa       -0.2722217             4.791492            5.215137
#> 6   setosa        1.3117452             4.791484            5.211114
#> 7   setosa        1.2308667             4.564384            5.037074
#> 8   setosa       -1.0687451             4.642609            5.120650
#> 9   setosa        1.0974371             4.303348            4.888585
#> 10  setosa        1.1631777             4.537918            5.054580
#> # ... with 140 more rows
…
