Create Dummy Variables using Regular Expressions — step_regex • recipes
…
with_dummies <- bake(rec2, newdata = covers)
with_dummies
#> # A tibble: 40 x 3
#>                                                   description rocks
#>                                                        <fctr> <dbl>
#>  1    1,cathedral family,rock outcrop complex,extremely stony     1
#>  2                 2,vanet,ratake families complex,very stony     1
#>  3                 3,haploborolis,rock outcrop complex,rubbly     1
#>  4                4,ratake family,rock outcrop complex,rubbly     1
#>  5         5,vanet family,rock outcrop complex complex,rubbly     1
#>  6        6,vanet,wetmore families,rock outcrop complex,stony     1
#>  7                                            7,gothic family     0
#>  8                       8,supervisor,limber families complex     0
#>  9                             9,troutville family,very stony     1
#> 10 10,bullwark,catamount families,rock outcrop complex,rubbly     1
#> # ... with 30 more rows, and 1 more variables: ratake.families <dbl>
…
