Apply (Smoothed) Rectified Linear Transformation — step_relu • recipes
…
data(biomass)

biomass_tr <- biomass[biomass$dataset == "Training",]
biomass_te <- biomass[biomass$dataset == "Testing",]

rec <- recipe(HHV ~ carbon + hydrogen + oxygen + nitrogen + sulfur,
              data = biomass_tr)

transformed_te <- rec %>%
  step_relu(carbon, shift = 40) %>%
  prep(biomass_tr) %>%
  bake(biomass_te)

transformed_te
#> # A tibble: 80 x 7
#>    carbon hydrogen oxygen nitrogen sulfur   HHV right_relu_carbon
#>     <dbl>    <dbl>  <dbl>    <dbl>  <dbl> <dbl>             <dbl>
#>  1   46.4     5.67   47.2    0.300  0.220  18.3              6.35
#>  2   43.2     5.50   48.1    2.85   0.340  17.6              3.25
#>  3   42.7     5.50   49.1    2.40   0.300  17.2              2.70
#>  4   46.4     6.10   37.3    1.80   0.500  18.9              6.40
#>  5   48.8     6.32   42.8    0.200  0.     20.5              8.76
#>  6   44.3     5.50   41.7    0.700  0.200  18.5              4.30
#>  7   38.9     5.23   54.1    1.19   0.510  15.1              0.  
#>  8   42.1     4.66   33.8    0.950  0.200  16.2              2.10
#>  9   29.2     4.40   31.1    0.140  4.90   11.1              0.  
#> 10   27.8     3.77   23.7    4.63   1.05   10.8              0.  
#> # ... with 70 more rows
…
