Create a Profiling Version of a Data Set — step_profile • recipes
…
    This step is atypical in that, when baked, the
 `newdata` argument is ignored; the resulting data set is
 based on the fixed and profiled variable's information.

    Examples

data(okc)

# Setup a grid across date but keep the other values fixed
recipe(~ diet + height + date, data = okc) %>%
  step_profile(-date, profile = vars(date)) %>%
  prep(training = okc, retain = TRUE) %>%
  juice
#> # A tibble: 100 x 3
#>    diet     height date      
#>    <fct>     <dbl> <date>    
#>  1 anything    68. 2011-06-27
#>  2 anything    68. 2011-06-30
#>  3 anything    68. 2011-07-04
#>  4 anything    68. 2011-07-08
#>  5 anything    68. 2011-07-11
#>  6 anything    68. 2011-07-15
#>  7 anything    68. 2011-07-19
#>  8 anything    68. 2011-07-23
#>  9 anything    68. 2011-07-26
#> 10 anything    68. 2011-07-30
#> # ... with 90 more rows
…
