Scaling Numeric Data to a Specific Range — step_range • recipes
…
biomass_te[1:10, names(transformed_te)]
#>    carbon hydrogen oxygen nitrogen sulfur
#> 15  46.35     5.67  47.20     0.30   0.22
#> 20  43.25     5.50  48.06     2.85   0.34
#> 26  42.70     5.50  49.10     2.40   0.30
#> 31  46.40     6.10  37.30     1.80   0.50
#> 36  48.76     6.32  42.77     0.20   0.00
#> 41  44.30     5.50  41.70     0.70   0.20
#> 46  38.94     5.23  54.13     1.19   0.51
#> 51  42.10     4.66  33.80     0.95   0.20
#> 55  29.20     4.40  31.10     0.14   4.90
#> 65  27.80     3.77  23.69     4.63   1.05
transformed_te
#> # A tibble: 80 x 5
#>       carbon  hydrogen oxygen nitrogen sulfur
#>        <dbl>     <dbl>  <dbl>    <dbl>  <dbl>
#>  1 0.3844011 0.4895833  47.20     0.30   0.22
#>  2 0.3468572 0.4748264  48.06     2.85   0.34
#>  3 0.3401962 0.4748264  49.10     2.40   0.30
#>  4 0.3850067 0.5269097  37.30     1.80   0.50
#>  5 0.4135885 0.5460069  42.77     0.20   0.00
#>  6 0.3595737 0.4748264  41.70     0.70   0.20
#>  7 0.2946591 0.4513889  54.13     1.19   0.51
#>  8 0.3329296 0.4019097  33.80     0.95   0.20
#>  9 0.1766986 0.3793403  31.10     0.14   4.90
#> 10 0.1597432 0.3246528  23.69     4.63   1.05
#> # ... with 70 more rows
…
