Holiday Feature Generator — step_holiday • recipes
…
    step_date step_rm recipe learn.recipe process.recipe listHolidays

    Examples

library(lubridate)
library(magrittr)
examples <- data.frame(someday = ymd("2000-12-20") + days(0:40))
holiday_rec <- recipe(~ someday, examples) %>%
   step_holiday(~ predictors())

holiday_rec <- learn(holiday_rec, training = examples)
#> step 1 holiday training 
holiday_values <- process(holiday_rec, newdata = examples)
holiday_values
#> # A tibble: 41 × 4
#>       someday someday_LaborDay someday_NewYearsDay someday_ChristmasDay
#>        <date>            <dbl>               <dbl>                <dbl>
#> 1  2000-12-20                0                   0                    0
#> 2  2000-12-21                0                   0                    0
#> 3  2000-12-22                0                   0                    0
#> 4  2000-12-23                0                   0                    0
#> 5  2000-12-24                0                   0                    0
#> 6  2000-12-25                0                   0                    1
#> 7  2000-12-26                0                   0                    0
#> 8  2000-12-27                0                   0                    0
#> 9  2000-12-28                0                   0                    0
#> 10 2000-12-29                0                   0                    0
#> # ... with 31 more rows
…
