NNMF Signal Extraction — step_nnmf • recipes
…
rec <- recipe(HHV ~ ., data = biomass) %>%
  add_role(sample, new_role = "id var") %>%
  add_role(dataset, new_role = "split variable") %>%
  step_nnmf(all_predictors(), num_comp = 2, seed = 473, num_run = 2) %>%
  prep(training = biomass, retain = TRUE)
#> Warning: Changing role(s) for sample
#> Warning: Changing role(s) for dataset

juice(rec)
#> # A tibble: 536 x 5
#>    sample                 dataset    HHV NNMF1 NNMF2
#>    <fct>                  <fct>    <dbl> <dbl> <dbl>
#>  1 Akhrot Shell           Training  20.0 0.379 0.198
#>  2 Alabama Oak Wood Waste Training  19.2 0.365 0.198
#>  3 Alder                  Training  18.3 0.408 0.185
#>  4 Alfalfa                Training  18.2 0.314 0.182
#>  5 Alfalfa Seed Straw     Training  18.4 0.359 0.185
#>  6 Alfalfa Stalks         Training  18.5 0.355 0.179
#>  7 Alfalfa Stems          Training  18.7 0.338 0.190
#>  8 Alfalfa Straw          Training  18.3 0.351 0.181
#>  9 Almond                 Training  18.6 0.361 0.195
#> 10 Almond Hull            Training  18.9 0.353 0.188
#> # ... with 526 more rows
…
